{
  "message": "ok",
  "jobs": [
    {
      "id": 101,
      "company": "Example Industrie SAS",
      "title": "Ingénieure plateforme",
      "summary": "Construire une plateforme fiable.",
      "rawDescription": "Mission technique sans donnée personnelle.",
      "createdAt": "2026-07-18T08:00:00.000Z",
      "updatedAt": "2026-07-20T09:00:00.000Z",
      "lastCheckedAt": "2026-07-20T10:00:00.000Z",
      "postedAt": "2026-07-18T08:00:00.000Z",
      "salaryMin": 50000,
      "salaryMax": 70000,
      "currency": "EUR",
      "status": "ACTIVE",
      "workLocation": "HYBRID",
      "postingUrl": "https://jobs.lever.co/example/abc-101?utm_source=sprout",
      "source": "example",
      "sourceId": "source-101",
      "desiredQualifications": ["TypeScript"],
      "requiredQualifications": ["Production safety"],
      "restrictions": null,
      "educationLevel": null,
      "h1b": false,
      "industry": "Technology",
      "jobLevel": "SENIOR",
      "jobTypes": ["FULL_TIME"],
      "relocationAssistance": false,
      "companyLogo": null,
      "companySize": "100-500",
      "oneLiner": "Reliable systems",
      "checkedBy": "fixture",
      "soc": null,
      "socCode": null,
      "socTitle": null,
      "onet": null,
      "onetCode": null,
      "onetTitle": null,
      "minExperience": 4,
      "benefits": ["Transport"],
      "responsibilities": ["Operate safely"],
      "skills": ["TypeScript"],
      "schedule": "DAY",
      "employerId": "employer-101",
      "companyId": "company-101",
      "locations": [
        {
          "address": "Paris, France",
          "country": "France",
          "countryCode": "FR",
          "city": "Paris",
          "region": "Île-de-France",
          "state": null,
          "code": "75000",
          "latitude": 48.8566,
          "longitude": 2.3522,
          "coordinates": [2.3522, 48.8566]
        }
      ]
    },
    {
      "id": "102",
      "company": "Example Littoral",
      "title": "Analyste données",
      "summary": null,
      "rawDescription": "Analyser des données ouvertes.",
      "createdAt": "2026-07-17T08:00:00.000Z",
      "updatedAt": "2026-07-20T09:30:00.000Z",
      "lastCheckedAt": "2026-07-20T10:30:00.000Z",
      "postedAt": null,
      "salaryMin": null,
      "salaryMax": null,
      "currency": null,
      "status": "ACTIVE",
      "workLocation": "IN_PERSON",
      "postingUrl": "https://careers.example.org/jobs/102?ref=sprout",
      "source": "example",
      "sourceId": "source-102",
      "desiredQualifications": null,
      "requiredQualifications": null,
      "restrictions": null,
      "educationLevel": null,
      "h1b": null,
      "industry": null,
      "jobLevel": "ENTRY",
      "jobTypes": ["FULL_TIME"],
      "relocationAssistance": null,
      "companyLogo": null,
      "companySize": null,
      "oneLiner": null,
      "checkedBy": null,
      "soc": null,
      "socCode": null,
      "socTitle": null,
      "onet": null,
      "onetCode": null,
      "onetTitle": null,
      "minExperience": null,
      "benefits": null,
      "responsibilities": null,
      "skills": null,
      "schedule": null,
      "employerId": null,
      "companyId": null,
      "locations": [
        {
          "address": "Lyon, France",
          "country": "France",
          "countryCode": "FR",
          "city": "Lyon",
          "region": "Auvergne-Rhône-Alpes",
          "state": null,
          "code": "69000",
          "latitude": 0,
          "longitude": 0,
          "coordinates": [0, 0]
        }
      ]
    }
  ],
  "results": [],
  "count": 3,
  "next": "?offset=2&limit=2",
  "previous": null
}
